Detect Disease Clusters — detect_disease_clusters • certestats
…
check2 |> has_ongoing_cluster("2022-06-01")
#> [1] FALSE
check2 |> has_ongoing_cluster(c("2022-06-01", "2022-06-20"))
#> [1] FALSE FALSE
check2 |> has_cluster_before("2022-06-01")
#> [1] TRUE
check2 |> has_cluster_after("2022-06-01")
#> [1] TRUE

check2 |> unclass()
#> $clusters
#> # A tibble: 79 × 6
#>    date       cases cluster day_in_period  days case_days
#>    <date>     <int>   <int>         <int> <int>     <int>
#>  1 2022-01-24     1       1            25     1         1
#>  2 2022-01-25     0       1            NA     2         1
#>  3 2022-01-26     0       1            NA     3         1
#>  4 2022-01-27     1       1            28     4         2
#>  5 2022-01-28     0       1            NA     5         2
#>  6 2022-01-29     1       1            30     6         3
#>  7 2022-01-30     0       1            NA     7         3
#>  8 2022-01-31     0       1            NA     8         3
#>  9 2022-02-01     1       1            33     9         4
#> 10 2022-02-02     0       1            NA    10         4
#> # ℹ 69 more rows
#> 
#> $details
#> # A tibble: 2,915 × 10
#>     year date       period_date day_in_period period cases moving_avg
#>    <int> <date>     <date>              <int>  <int> <int>      <dbl>
#>  1  2015 2015-01-07 2000-01-07              1      7     1      1    
#>  2  2015 2015-01-08 2000-01-08              2      7     0      0.5  
#>  3  2015 2015-01-09 2000-01-09              3      7     0      0.333
#>  4  2015 2015-01-10 2000-01-10              4      7     0      0.25 
#>  5  2015 2015-01-11 2000-01-11              5      7     0      0.2  
#>  6  2015 2015-01-12 2000-01-12              6      7     0      0.167
#>  7  2015 2015-01-13 2000-01-13              7      7     1      0.286
#>  8  2015 2015-01-14 2000-01-14              8      7     0      0.143
#>  9  2015 2015-01-15 2000-01-15              9      7     0      0.143
#> 10  2015 2015-01-16 2000-01-16             10      7     0      0.143
#> # ℹ 2,905 more rows
#> # ℹ 3 more variables: moving_avg_max <dbl>, moving_avg_pctile <dbl>,
#> #   moving_avg_limit <dbl>
…
