Early Warning for Disease Clusters — early_warning_cluster • certestats
…
check2 |> has_clusters()
#> [1] FALSE
check2 |> has_clusters(15)
#> [1] FALSE

check |> unclass()
#> $clusters
#> [1] date         cases        cluster      ongoing_days
#> <0 rows> (or 0-length row.names)
#> 
#> $details
#> # A tibble: 300 × 7
#>     year month_day  in_scope cases ma_5c max_ma_5c ma_5c_pct_outscope
#>    <int> <date>     <lgl>    <int> <dbl>     <dbl>              <dbl>
#>  1  2018 1972-01-02 FALSE        1     1         1                  1
#>  2  2018 1972-01-15 FALSE        1     1         1                  1
#>  3  2018 1972-01-17 FALSE        1     1         1                  1
#>  4  2018 1972-01-19 FALSE        1     1         1                  1
#>  5  2018 1972-02-03 FALSE        1     1         1                  1
#>  6  2018 1972-02-06 FALSE        1     1         1                  1
#>  7  2018 1972-02-07 FALSE        1     1         1                  1
#>  8  2018 1972-02-08 FALSE        1     1         1                  1
#>  9  2018 1972-02-09 FALSE        1     1         1                  1
#> 10  2018 1972-02-12 FALSE        1     1         1                  1
#> # ℹ 290 more rows
…
