Create a Machine Learning (ML) Model — machine_learning • certestats
…
ml_logistic_regression: parsnip::logistic_reg()

ml_neural_network: parsnip::mlp()

ml_nearest_neighbour: parsnip::nearest_neighbor()

ml_random_forest: parsnip::rand_forest()

ml_xg_boost: parsnip::xgb_train()

    Examples

# 'esbl_tests' is an included data set, see ?esbl_tests
print(esbl_tests, n = 5)
#> # A tibble: 500 × 19
#>   esbl  genus    AMC   AMP   TZP   CXM   FOX   CTX   CAZ   GEN   TOB   TMP   SXT
#>   <lgl> <chr>  <dbl> <dbl> <dbl> <dbl> <dbl> <dbl> <dbl> <dbl> <dbl> <dbl> <dbl>
#> 1 FALSE Esche…    32    32     4    64    64  8     8        1     1  16      20
#> 2 FALSE Esche…    32    32     4    64    64  4     8        1     1  16     320
#> 3 FALSE Esche…     4     2    64     8     4  8     0.12    16    16   0.5    20
#> 4 FALSE Klebs…    32    32    16    64    64  8     8        1     1   0.5    20
#> 5 FALSE Esche…    32    32     4     4     4  0.25  2        1     1  16     320
#> # ℹ 495 more rows
#> # ℹ 6 more variables: NIT <dbl>, FOS <dbl>, CIP <dbl>, IPM <dbl>, MEM <dbl>,
#> #   COL <dbl>
…
# Applying A Model -----------------------------------------------------
 
# simply use base R `predict()` to apply a model:
model1 |> predict(esbl_tests)
#> # A tibble: 500 × 1
#>    .pred_class
#>    <fct>      
#>  1 FALSE      
#>  2 FALSE      
#>  3 FALSE      
#>  4 FALSE      
#>  5 FALSE      
#>  6 FALSE      
#>  7 FALSE      
#>  8 FALSE      
#>  9 FALSE      
#> 10 FALSE      
#> # ℹ 490 more rows

# but apply_model_to() contains more info and can apply corrections:
model1 |> apply_model_to(esbl_tests)
#> # A tibble: 500 × 4
#>    predicted certainty .pred_TRUE .pred_FALSE
#>    <lgl>         <dbl>      <dbl>       <dbl>
#>  1 FALSE         1.00   0.0000538       1.00 
#>  2 FALSE         1.00   0.0000538       1.00 
#>  3 FALSE         0.990  0.0101          0.990
#>  4 FALSE         1.00   0.0000264       1.00 
#>  5 FALSE         1.00   0.000243        1.00 
#>  6 FALSE         0.989  0.0107          0.989
#>  7 FALSE         0.999  0.00123         0.999
#>  8 FALSE         0.999  0.000556        0.999
#>  9 FALSE         1.00   0.0000282       1.00 
#> 10 FALSE         0.998  0.00153         0.998
#> # ℹ 490 more rows
model1 |> apply_model_to(esbl_tests[, 1:15])
#> # A tibble: 500 × 4
#>    predicted certainty .pred_TRUE .pred_FALSE
#>    <lgl>         <dbl>      <dbl>       <dbl>
#>  1 FALSE         1.00   0.0000538       1.00 
#>  2 FALSE         1.00   0.0000538       1.00 
#>  3 FALSE         0.906  0.0939          0.906
#>  4 FALSE         1.00   0.0000264       1.00 
#>  5 FALSE         1.00   0.000316        1.00 
#>  6 FALSE         0.989  0.0107          0.989
#>  7 FALSE         0.998  0.00193         0.998
#>  8 FALSE         0.903  0.0969          0.903
#>  9 FALSE         1.00   0.0000282       1.00 
#> 10 FALSE         1.00   0.0000250       1.00 
#> # ℹ 490 more rows
esbl_tests2 <- esbl_tests
esbl_tests2[2, "CIP"] <- NA
esbl_tests2[5, "AMC"] <- NA
# with XGBoost, nothing will be changed (it can correct for missings):
model1 |> apply_model_to(esbl_tests2)
#> # A tibble: 500 × 4
#>    predicted certainty .pred_TRUE .pred_FALSE
#>    <lgl>         <dbl>      <dbl>       <dbl>
#>  1 FALSE         1.00   0.0000538       1.00 
#>  2 FALSE         1.00   0.0000538       1.00 
#>  3 FALSE         0.990  0.0101          0.990
#>  4 FALSE         1.00   0.0000264       1.00 
#>  5 FALSE         0.998  0.00160         0.998
#>  6 FALSE         0.989  0.0107          0.989
#>  7 FALSE         0.999  0.00123         0.999
#>  8 FALSE         0.999  0.000556        0.999
#>  9 FALSE         1.00   0.0000282       1.00 
#> 10 FALSE         0.998  0.00153         0.998
#> # ℹ 490 more rows
# with random forest (or others), missings will be imputed:
model2 |> apply_model_to(esbl_tests2)
#> Generating MICE using m = 5 multiple imputations... 
#> OK.
#> Imputed variable 'AMC' using MICE (method: predictive mean matching) in row 5
#> Imputed variable 'CIP' using MICE (method: predictive mean matching) in row 2
#> # A tibble: 500 × 4
#>    predicted certainty .pred_TRUE .pred_FALSE
#>    <lgl>         <dbl>      <dbl>       <dbl>
#>  1 FALSE         0.965    0.0354        0.965
#>  2 FALSE         0.910    0.0895        0.910
#>  3 FALSE         0.735    0.265         0.735
#>  4 FALSE         0.991    0.00948       0.991
#>  5 FALSE         0.919    0.0814        0.919
#>  6 FALSE         0.747    0.253         0.747
#>  7 FALSE         0.994    0.00635       0.994
#>  8 FALSE         0.952    0.0475        0.952
#>  9 FALSE         0.949    0.0514        0.949
#> 10 FALSE         0.894    0.106         0.894
#> # ℹ 490 more rows
…
